{
  "project_info": {
    "project_number": "579118939806",
    "firebase_url": "https://myfirebase-44e46.firebaseio.com",
    "project_id": "myfirebase-44e46",
    "storage_bucket": "myfirebase-44e46.appspot.com"
  },
  "client": [
    {
      "client_info": {
        "mobilesdk_app_id": "1:579118939806:android:a8a6f5983ca93d9b",
        "android_client_info": {
          "package_name": "com.example.myfirebase"
        }
      },
      "oauth_client": [
        {
          "client_id": "579118939806-msdcbufh4gua65av3kdatpj2gjgimopk.apps.googleusercontent.com",
          "client_type": 1,
          "android_info": {
            "package_name": "com.example.myfirebase",
            "certificate_hash": "cc0f17334edacedeb6751022c5e0ef2067e876f7"
          }
        },
        {
          "client_id": "579118939806-7jslrf552plfsr9urq0apodjp43hrmdp.apps.googleusercontent.com",
          "client_type": 3
        }
      ],
      "api_key": [
        {
          "current_key": "AIzaSyAmFosw1eBnJ9czE-Px7hDXXDkFTHIJ7VA"
        }
      ],
      "services": {
        "appinvite_service": {
          "other_platform_oauth_client": [
            {
              "client_id": "579118939806-7jslrf552plfsr9urq0apodjp43hrmdp.apps.googleusercontent.com",
              "client_type": 3
            }
          ]
        }
      }
    }
  ],
  "configuration_version": "1"
}